{
  "swagger": "2.0",
  "info": {
    "description": "Api development in node js for demo v1.0.0",
    "version": "1.0.1",
    "title": "demo v1"
  },
  "host": "localhost:4050",
  "basePath": "/v1",
  "tags": [
    
   
    {
      "name": "App Apis",
      "description": "Operations about App "
    }
  ],
  "paths": {
    "/userauth/login": {
      "post": {
        "summary": "User Login",
        "tags": [
          "App Apis"
        ],
        "deprecated": false,
        "produces": [
          "application/json"
        ],
        "parameters": [
          {
            "name": "Body",
            "in": "body",
            "required": true,
            "description": "",
            "schema": {
              "$ref": "#/definitions/login"
            }
          }
        ],
        "responses": {
          "200": {
            "description": "success",
            "headers": {}
          },
          "400": {
            "description": "Invalid ID supplied"
          },
          "404": {
            "description": "function not found"
          },
          "500": {
            "description": "Server Internal error"
          }
        }
      }
    },

    "/userauth/forgotpassword": {
      "post": {
        "summary": "Forgot Password",
        "tags": [
          "App Apis"
        ],
        "deprecated": false,
        "produces": [
          "application/json"
        ],
        "parameters": [
          {
            "name": "Body",
            "in": "body",
            "required": true,
            "description": "",
            "schema": {
              "$ref": "#/definitions/forgotpassword"
            }
          }
        ],
        "responses": {
          "200": {
            "description": "success",
            "headers": {}
          },
          "400": {
            "description": "Invalid ID supplied"
          },
          "404": {
            "description": "function not found"
          },
          "500": {
            "description": "Server Internal error"
          }
        }
      }
    },
    "/userauth/resetpassword": {
      "post": {
        "summary": "reset Password",
        "tags": [
          "App Apis"
        ],
        "deprecated": false,
        "produces": [
          "application/json"
        ],
        "parameters": [
          {
            "name": "Body",
            "in": "body",
            "required": true,
            "description": "",
            "schema": {
              "$ref": "#/definitions/resetpassword"
            }
          }
        ],
        "responses": {
          "200": {
            "description": "success",
            "headers": {}
          },
          "400": {
            "description": "Invalid ID supplied"
          },
          "404": {
            "description": "function not found"
          },
          "500": {
            "description": "Server Internal error"
          }
        }
      }
    },
    "/userauth/changePassword": {
      "post": {
        "summary": "Change Password",
        "tags": [
          "App Apis"
        ],
        "deprecated": false,
        "produces": [
          "application/json"
        ],
        "parameters": [
          {
            "name": "Body",
            "in": "body",
            "required": true,
            "description": "",
            "schema": {
              "$ref": "#/definitions/changePassword"
            }
          }
        ],
        "responses": {
          "200": {
            "description": "success",
            "headers": {}
          },
          "400": {
            "description": "Invalid ID supplied"
          },
          "404": {
            "description": "function not found"
          },
          "500": {
            "description": "Server Internal error"
          }
        }
      }
    },
    "/userauth/userRegistration": {
      "post": {
        "summary": "User Registration ",
        "tags": [
          "App Apis"
        ],
        "deprecated": false,
        "produces": [
          "application/json"
        ],
        "parameters": [
          {
            "name": "Body",
            "in": "body",
            "required": true,
            "description": "",
            "schema": {
              "$ref": "#/definitions/userRegistration"
            }
          }
        ],
        "responses": {
          "200": {
            "description": "success",
            "headers": {}
          },
          "400": {
            "description": "Invalid ID supplied"
          },
          "404": {
            "description": "function not found"
          },
          "500": {
            "description": "Server Internal error"
          }
        }
      }
    },
    "/userauth/socialLoginSignUp": {
      "post": {
        "summary": "User Social Login SignUp ",
        "tags": [
          "App Apis"
        ],
        "deprecated": false,
        "produces": [
          "application/json"
        ],
        "parameters": [
          {
            "name": "Body",
            "in": "body",
            "required": true,
            "description": "",
            "schema": {
              "$ref": "#/definitions/socialLoginSignUp"
            }
          }
        ],
        "responses": {
          "200": {
            "description": "success",
            "headers": {}
          },
          "400": {
            "description": "Invalid ID supplied"
          },
          "404": {
            "description": "function not found"
          },
          "500": {
            "description": "Server Internal error"
          }
        }
      }
    },

    "/userauth/Logout": {
      "post": {
        "summary": "Logou User",
        "tags": [
          "App Apis"
        ],
        "deprecated": false,
        "produces": [
          "application/json"
        ],
        "parameters": [
          {
            "name": "token",
            "in": "header",
            "required": false,
            "default": "{token}",
            "type": "string"
          }
        ],
        "responses": {
          "200": {
            "description": "success",
            "headers": {}
          },
          "400": {
            "description": "Invalid ID supplied"
          },
          "404": {
            "description": "function not found"
          },
          "500": {
            "description": "Server Internal error"
          }
        }
      }
    }
  
  
   
  },
  "definitions": {
    "login": {
      "title": "User Login",
      "example": {
        "email": "test@gmail.com",
        "password": "password",
        "device_type": "Android",
        "device_token": ""
      },
      "type": "object",
      "properties": {
        "email": {
          "type": "string"
        },
        "password": {
          "type": "string"
        },
        "device_type": {
          "type": "string"
        },
        "device_token": {
          "type": "string"
        }
      },
      "required": [
        "email",
        "password",
        "device_token"
      ]
    },
    "forgotpassword": {
      "title": "forgot Password",
      "example": {
        "email": "forgotpassword@yopmail.com"
      },
      "type": "object",
      "properties": {
        "email": {
          "type": "string"
        }
      },
      "required": [
        "email"
      ]
    },
    "resetpassword": {
      "title": "reset Password",
      "example": {
        "resettoken": "",
        "password": "",
        "conpassword": ""
      },
      "type": "object",
      "properties": {
        "resettoken": {
          "type": "string"
        },
        "password": {
          "type": "string"
        },
        "conpassword": {
          "type": "string"
        }
      },
      "required": [
        "resettoken",
        "password",
        "conpassword"
      ]
    },
    "changePassword": {
      "title": "Change Password",
      "example": {
        "email": "test@gmail.com",
        "oldPassword": "password",
        "newPassword": "Android",
        "repeatPassword": ""
      },
      "type": "object",
      "properties": {
        "email": {
          "type": "string"
        },
        "oldPassword": {
          "type": "string"
        },
        "newPassword": {
          "type": "string"
        },
        "repeatPassword": {
          "type": "string"
        }
      },
      "required": [
        "email",
        "oldPassword",
        "newPassword",
        "repeatPassword"
      ]
    },
    "userRegistration": {
      "title": "User Registration",
      "example": {
        "firstname": "john",
        "lastname": "roy",
        "email": "test@gmail.com",
        "password": "password",
        "device_type":"",
        "device_token":""
      },
      "type": "object",
      "properties": {
        "firstname": {
          "type": "string"
        },
        "lastname": {
          "type": "string"
        },
        "email": {
          "type": "string"
        },
        "password": {
          "type": "string"
        },
        "device_type": {
          "type": "string"
        },
        "device_token": {
          "type": "string"
        }
      },
      "required": [
        "email",
        "password",
        "firstname"
      ]
    },
    "socialLoginSignUp": {
      "title": "User Social Login Register",
      "example": {
        "firstname":"",
        "lastname":"",
        "name": "john",
        "email": "ajay21@mailinator.com",
        "SocialMediaName": "google",
        "AuthCode": "ghghgh",
        "googleId": "ABC",
        "device_type": "Android",
        "device_token": "12313132"
      },
      "type": "object",
      "properties": {
        "firstname": {
          "type": "string"
        },
        "lastname": {
          "type": "string"
        },
        "name": {
          "type": "string"
        },
        "email": {
          "type": "string"
        },
        "SocialMediaName": {
          "type": "string"
        },
        "AuthCode": {
          "type": "string"
        },
        "googleId": {
          "type": "string"
        },
        "device_type": {
          "type": "string"
        },
        "device_token": {
          "type": "string"
        }
      },
      "required": [
        "email",
        "SocialMediaName"
      ]
    }
  }
}