{
    "type": "service_account",
    "project_id": "snaphouss-manager",
    "private_key_id": "787cf0453c14d8e776532f9be4b7edc42bfac3d1",
    "private_key": "-----BEGIN PRIVATE KEY-----\nMIIEvAIBADANBgkqhkiG9w0BAQEFAASCBKYwggSiAgEAAoIBAQDOg/Ba4FJU0Ds6\n18/Q8gqNueZ4obCT6LdwqTktyNXfpVAsP/zfh9LD2mbZ/S2QTVy+OdoLt2mat5jJ\nq06Qu5xyUMuSOiByJfleYBeEu3MGg1W1goXh8N0jJHZ/S9jqLuLmLDQptHVIOsym\nZ+iqSmke7crB3ZUIooN9BbyRvqq7zP0q3UPsj29028c+RBKyyL8YvZeON5x7G57h\nyWOoKTg1yTHT2Xo6ovHYhOqp7g48cH1tdz/CRiBJlTGRFbfHOkfhtd9H83mZhDsG\nUqt56T+PWlUlOpQyIjlZm0dsydKaBr5K92/XRvjW9Xfqzdg9bV9rTjaabiRDuJKn\nOUpoDRQVAgMBAAECggEADDmMN1zzErk24F9ZGnXRgR1Bkt+Da+YJQd6Kl3a9jl0j\nV1M8XWEVbWmW0A2oLlQeCtay3SGw2ytGHJ4K6w9oDe5RdqkBNbCgx+DpU36jKv4I\nS1PcKAlRldx5NUTgpNA8t0JjnhpkHO/6IFmjUL1R5rZN29cJlPbF0NdPl9MRGUfI\nayp6B3VOUbcIgr1v9wKfC+IZ8r9xRrrfVbOciGPypuwccjVjSbctg1WA/Hh0KV+S\n04dGWqunVH4jSDtURuIr7ze6ksaCUs204lUKJ6eBnj6ECqIyu7ujve6p+bodYPiz\nXdQCBbiqaHC99GOt86JwsOLn8EBhoSrGlxyPoSljCwKBgQDzEZPtQcubhtbgvFeQ\ntFjKLkLMGQtcNzCgabe8RUKNg/NjqLDjlpocyELdsKjD4QBR+578dTaCO/fmuxOi\nnRVo+Gz27lxyNEkB8AXbK7sH2rEuMsClzBFem9AfEIGf1pHVIagjyZK3ZMqu798H\nPY1xX+EEBJLBvgsn+qUIQOznCwKBgQDZgIgMEnFbkQTaP6zqOafgsLsDGG8gz4nb\nB1ULhdfIoPU5aSpFeAXZBaICSQ3RpM0ZuGEQQ1PIaGIEXpiAYYLh68gUft4f0sTt\nZX2UYCbPGS84fXbFyaZieUV45+gMBd5FaRhnr/S3n46Q0NtT1TAM+K357KSW+raS\ncHRFeHRlXwKBgEhh56czfKpn0P1DmN/ilL5AYGve2V8woC5kzO4nwdXagVQgG+zq\nICKKED9sKBWMn0fKomGTlhPaP8xZ0VMPbBzCPdCa0rS/lS4ah+Podd205iZXvr6g\nslt2EtftVmx+vRa22xctI5+xSBooHEZPshsc7ikAI6PGMBRLs3FtxB5ZAoGAficq\nwbXAwhdu9ReRt5kRYiWfksANVL6LetrZ3QEYk2moUlBJEFn5KlM2EJVGyp4HyC9F\nPSWP5uGEWHx1f6EPRPJ47kpXk6WwSvFe0TyjxeMZnG5JAZdgRiWIwgPgd3i/3wqB\n+UH5cre8/Qnm7MzuPdfPMPKs1FU+p9lJ1zFycYkCgYAZAX/lM6EuTwAQmxQ7xfPE\n0gTQ7IHtE99AAgs5CYRtNT2hX7CufzJh+UXqO0VNxeu2EbC2MQPjNQr5SFdG+8GF\nP08cJZoKnGHX209CQoTPtFqRKjl4SGudKLqP+Vq0Ur+8+D/6OSgJYMsl6LXVWWZ3\n3CvVMGK9L210C+0KJ3YIVw==\n-----END PRIVATE KEY-----\n",
    "client_email": "firebase-adminsdk-y62se@snaphouss-manager.iam.gserviceaccount.com",
    "client_id": "102857652571270762325",
    "auth_uri": "https://accounts.google.com/o/oauth2/auth",
    "token_uri": "https://oauth2.googleapis.com/token",
    "auth_provider_x509_cert_url": "https://www.googleapis.com/oauth2/v1/certs",
    "client_x509_cert_url": "https://www.googleapis.com/robot/v1/metadata/x509/firebase-adminsdk-y62se%40snaphouss-manager.iam.gserviceaccount.com"
  }
    